[
    {
        "name": "AllSaints - Кожаная куртка Cora Jacket",
        "price": 8899,
        "imageUrl": "./images/AA00-KUM014_99X_F1.jpg",
        "article": "123456",
        "color": "Черный"
    },
    {
        "name": "Брюки Samsoe Samsoe",
        "price": 6399,
        "imageUrl": "./images/AW23-SPM03A-80X_F1.jpg",
        "article": "789012",
        "color": "Бежевый"
    },
    {
        "name": "Хлопковая футболка Les Deux",
        "price": 2199,
        "imageUrl": "./images/AW23-TSM0MR-59A_F1.jpg",
        "article": "345678",
        "color": "Синий"
    },
    {
        "name": "Хлопковая футболка Karl Kani",
        "price": 1199,
        "imageUrl": "./images/AW23-TSM0PF-11X_F1.jpg",
        "article": "567890",
        "color": "Желтый"
    },
    {
        "name": "Брюки Dickies 874",
        "price": 2399,
        "imageUrl": "./images/SS23-SPM0JA-59X_F1.jpg",
        "article": "901234",
        "color": "Черный"
    },
    {
        "name": "Хлопковый лонгслив HUGO",
        "price": 3599,
        "imageUrl": "./images/AW23-BUM00R-99X_F1.jpg",
        "article": "2345687",
        "color": "Черный"
    },
    {
        "name": "Хлопковый лонгслив HUGO",
        "price": 4499,
        "imageUrl": "./images/AW23-POM018-99X_F1.jpg",
        "article": "678901",
        "color": "Черный"
    },
    {
        "name": "Хлопковая кепка AllSaints",
        "price": 2399,
        "imageUrl": "./images/AW23-CAM06I-99X_F1.jpg",
        "article": "890123",
        "color": "Черный"
    },
    {
        "name": "Рюкзак Lefrik",
        "price": 2999,
        "imageUrl": "./images/ZS23-PKU001-29X_F1.jpg",
        "article": "123789",
        "color": "Красный"
    },
    {
        "name": "Джинсы Wrangler River",
        "price": 2199,
        "imageUrl": "./images/SS23-SJM0FO-55X_F1.jpg",
        "article": "456890",
        "color": "Синий"
    },
    {
        "name": "Хлопковая футболка Vans",
        "price": 1399,
        "imageUrl": "./images/AW23-TSM0SF-00X_F1.jpg",
        "article": "567012",
        "color": "Белый"
    },
    {
        "name": "Хлопковое поло Polo Ralph Lauren",
        "price": 5199,
        "imageUrl": "./images/AW23-POM05O-11X_F1.jpg",
        "article": "890234",
        "color": "Желтый"
    },
    {
        "name": "Двусторонняя безрукавка Michael Kors",
        "price": 9999,
        "imageUrl": "./images/AW23-KUM0E5-96X_F1.jpg",
        "article": "234567",
        "color": "Синий"
    },
    {
        "name": "Хлопковая кофта Pepe Jeans Meier",
        "price": 2999,
        "imageUrl": "./images/AW23-BLM05P-00X_F1.jpg",
        "article": "345890",
        "color": "Белый"
    },
    {
        "name": "Хлопковые шорты Converse",
        "price": 2499,
        "imageUrl": "./images/SS23-SZM0U9-99X_F1.jpg",
        "article": "567123",
        "color": "Черный"
    }
]
