[
  {
    "comment_id": "19",
    "post_id": "17",
    "user_id": "4",
    "comment_text": "Замечательно!",
    "date": 1637808000
  },
  {
    "comment_id": "8",
    "post_id": "5",
    "user_id": "4",
    "comment_text": "Отличное фото!",
    "date": 1636867200
  },
  {
    "comment_id": "6",
    "post_id": "4",
    "user_id": "5",
    "comment_text": "Понравилось!",
    "date": 1636867200
  },
  {
    "comment_id": "14",
    "post_id": "12",
    "user_id": "1",
    "comment_text": "Интересно!",
    "date": 1637342400
  },
  {
    "comment_id": "11",
    "post_id": "9",
    "user_id": "5",
    "comment_text": "Красиво!",
    "date": 1637116800
  },
  {
    "comment_id": "12",
    "post_id": "10",
    "user_id": "3",
    "comment_text": "Отличный контент!",
    "date": 1637203200
  },
  {
    "comment_id": "1",
    "post_id": "1",
    "user_id": "4",
    "comment_text": "Отличный пост!",
    "date": 1636358400
  },
  {
    "comment_id": "20",
    "post_id": "18",
    "user_id": "1",
    "comment_text": "Класс!",
    "date": 1637894400
  },
  {
    "comment_id": "4",
    "post_id": "3",
    "user_id": "1",
    "comment_text": "Замечательный контент!",
    "date": 1636473600
  },
  {
    "comment_id": "17",
    "post_id": "15",
    "user_id": "2",
    "comment_text": "Очень хорошо!",
    "date": 1637673600
  },
  {
    "comment_id": "7",
    "post_id": "5",
    "user_id": "2",
    "comment_text": "Очень красиво!",
    "date": 1636766400
  },
  {
    "comment_id": "9",
    "post_id": "7",
    "user_id": "2",
    "comment_text": "Отличная работа!",
    "date": 1636948800
  },
  {
    "comment_id": "16",
    "post_id": "14",
    "user_id": "3",
    "comment_text": "Классный контент!",
    "date": 1637548800
  },
  {
    "comment_id": "5",
    "post_id": "4",
    "user_id": "1",
    "comment_text": "Отличный контент!",
    "date": 1636766400
  },
  {
    "comment_id": "2",
    "post_id": "1",
    "user_id": "5",
    "comment_text": "Очень интересно!",
    "date": 1636473600
  },
  {
    "comment_id": "10",
    "post_id": "8",
    "user_id": "4",
    "comment_text": "Очень интересно!",
    "date": 1637035200
  },
  {
    "comment_id": "3",
    "post_id": "2",
    "user_id": "3",
    "comment_text": "Отличное изображение!",
    "date": 1636358400
  },
  {
    "comment_id": "18",
    "post_id": "16",
    "user_id": "5",
    "comment_text": "Удивительно!",
    "date": 1637740800
  },
  {
    "comment_id": "15",
    "post_id": "13",
    "user_id": "4",
    "comment_text": "Отличная фотография!",
    "date": 1637520000
  },
  {
    "comment_id": "13",
    "post_id": "11",
    "user_id": "2",
    "comment_text": "Понравилось!",
    "date": 1637356800
  },
  {
    "comment_id": "99",
    "post_id": "1",
    "user_id": "9",
    "comment_text": "Отличный супер супер пост!!! Давай побольше таких фото, всегда приятно видеть твои фото!!!",
    "date": 1636358400
  }
]
